<?xml version="1.0" encoding="UTF-8" standalone="no"?>
<!DOCTYPE svg PUBLIC "-//W3C//DTD SVG 1.0//EN" "http://www.w3.org/TR/2001/PR-SVG-20010719/DTD/svg10.dtd">
<svg width="83cm" height="44cm" viewBox="-250 224 1644 864" xmlns="http://www.w3.org/2000/svg" xmlns:xlink="http://www.w3.org/1999/xlink">
  <g>
    <rect style="fill: #ff9b9b" x="506.84" y="1043.47" width="109.05" height="38"/>
    <rect style="fill: none; fill-opacity:0; stroke-width: 2; stroke: #000000" x="506.84" y="1043.47" width="109.05" height="38"/>
    <text font-size="12.8" style="fill: #000000;text-anchor:middle;font-family:sans-serif;font-style:normal;font-weight:normal" x="561.365" y="1066.37">
      <tspan x="561.365" y="1066.37">SAN és részei</tspan>
    </text>
  </g>
  <g>
    <rect style="fill: #ff9b9b" x="722.092" y="1033.11" width="130.65" height="54"/>
    <rect style="fill: none; fill-opacity:0; stroke-width: 2; stroke: #000000" x="722.092" y="1033.11" width="130.65" height="54"/>
    <text font-size="12.8" style="fill: #000000;text-anchor:middle;font-family:sans-serif;font-style:normal;font-weight:normal" x="787.417" y="1056.01">
      <tspan x="787.417" y="1056.01">központi hálózati</tspan>
      <tspan x="787.417" y="1072.01">eszközök</tspan>
    </text>
  </g>
  <g>
    <rect style="fill: #ffd6b9" x="-239.726" y="883.474" width="118.8" height="38"/>
    <rect style="fill: none; fill-opacity:0; stroke-width: 2; stroke: #000000" x="-239.726" y="883.474" width="118.8" height="38"/>
    <text font-size="12.8" style="fill: #000000;text-anchor:middle;font-family:sans-serif;font-style:normal;font-weight:normal" x="-180.326" y="906.374">
      <tspan x="-180.326" y="906.374">Netcon szerver</tspan>
    </text>
  </g>
  <g>
    <rect style="fill: #ffd6b9" x="-64.4878" y="885.384" width="98.15" height="38"/>
    <rect style="fill: none; fill-opacity:0; stroke-width: 2; stroke: #000000" x="-64.4878" y="885.384" width="98.15" height="38"/>
    <text font-size="12.8" style="fill: #000000;text-anchor:middle;font-family:sans-serif;font-style:normal;font-weight:normal" x="-15.4128" y="908.284">
      <tspan x="-15.4128" y="908.284">SAP szerver</tspan>
    </text>
  </g>
  <g>
    <rect style="fill: #ffd6b9" x="347.448" y="882.294" width="117.6" height="54"/>
    <rect style="fill: none; fill-opacity:0; stroke-width: 2; stroke: #000000" x="347.448" y="882.294" width="117.6" height="54"/>
    <text font-size="12.8" style="fill: #000000;text-anchor:middle;font-family:sans-serif;font-style:normal;font-weight:normal" x="406.248" y="905.194">
      <tspan x="406.248" y="905.194">Számlázási és</tspan>
      <tspan x="406.248" y="921.194">Pénztár cluster</tspan>
    </text>
  </g>
  <g>
    <rect style="fill: #ffd6b9" x="714.3" y="884.384" width="139.55" height="54"/>
    <rect style="fill: none; fill-opacity:0; stroke-width: 2; stroke: #000000" x="714.3" y="884.384" width="139.55" height="54"/>
    <text font-size="12.8" style="fill: #000000;text-anchor:middle;font-family:sans-serif;font-style:normal;font-weight:normal" x="784.075" y="907.284">
      <tspan x="784.075" y="907.284">Custpack, Netline,</tspan>
      <tspan x="784.075" y="923.284">Know-IT-All cluster</tspan>
    </text>
  </g>
  <g>
    <rect style="fill: #ffd6b9" x="1043.57" y="889.022" width="137.75" height="54"/>
    <rect style="fill: none; fill-opacity:0; stroke-width: 2; stroke: #000000" x="1043.57" y="889.022" width="137.75" height="54"/>
    <text font-size="12.8" style="fill: #000000;text-anchor:middle;font-family:sans-serif;font-style:normal;font-weight:normal" x="1112.45" y="911.922">
      <tspan x="1112.45" y="911.922">Perso és Staffman</tspan>
      <tspan x="1112.45" y="927.922">szerver</tspan>
    </text>
  </g>
  <g>
    <rect style="fill: #fff1a9" x="-244.444" y="644.75" width="131.7" height="54"/>
    <rect style="fill: none; fill-opacity:0; stroke-width: 2; stroke: #000000" x="-244.444" y="644.75" width="131.7" height="54"/>
    <text font-size="12.8" style="fill: #000000;text-anchor:middle;font-family:sans-serif;font-style:normal;font-weight:normal" x="-178.594" y="667.65">
      <tspan x="-178.594" y="667.65">Netcon</tspan>
      <tspan x="-178.594" y="683.65">Adatbázisszerver</tspan>
    </text>
  </g>
  <g>
    <rect style="fill: #fff1a9" x="-83.7034" y="649.022" width="135.05" height="54"/>
    <rect style="fill: none; fill-opacity:0; stroke-width: 2; stroke: #000000" x="-83.7034" y="649.022" width="135.05" height="54"/>
    <text font-size="12.8" style="fill: #000000;text-anchor:middle;font-family:sans-serif;font-style:normal;font-weight:normal" x="-16.1784" y="671.922">
      <tspan x="-16.1784" y="671.922">SAP</tspan>
      <tspan x="-16.1784" y="687.922">adatbázis szerver</tspan>
    </text>
  </g>
  <g>
    <rect style="fill: #fff1a9" x="83.8" y="643.75" width="131" height="54"/>
    <rect style="fill: none; fill-opacity:0; stroke-width: 2; stroke: #000000" x="83.8" y="643.75" width="131" height="54"/>
    <text font-size="12.8" style="fill: #000000;text-anchor:middle;font-family:sans-serif;font-style:normal;font-weight:normal" x="149.3" y="666.65">
      <tspan x="149.3" y="666.65">Számlázási</tspan>
      <tspan x="149.3" y="682.65">adatbázisszerver</tspan>
    </text>
  </g>
  <g>
    <rect style="fill: #ffecc1" x="231.85" y="643.75" width="130.95" height="54"/>
    <rect style="fill: none; fill-opacity:0; stroke-width: 2; stroke: #000000" x="231.85" y="643.75" width="130.95" height="54"/>
    <text font-size="12.8" style="fill: #000000;text-anchor:middle;font-family:sans-serif;font-style:normal;font-weight:normal" x="297.325" y="666.65">
      <tspan x="297.325" y="666.65">Számlázási</tspan>
      <tspan x="297.325" y="682.65">nyomtatószerver</tspan>
    </text>
  </g>
  <g>
    <rect style="fill: #ffecc1" x="371.338" y="642.75" width="130.95" height="54"/>
    <rect style="fill: none; fill-opacity:0; stroke-width: 2; stroke: #000000" x="371.338" y="642.75" width="130.95" height="54"/>
    <text font-size="12.8" style="fill: #000000;text-anchor:middle;font-family:sans-serif;font-style:normal;font-weight:normal" x="436.813" y="665.65">
      <tspan x="436.813" y="665.65">Pénztári</tspan>
      <tspan x="436.813" y="681.65">nyomtatószerver</tspan>
    </text>
  </g>
  <g>
    <rect style="fill: #fff1a9" x="518.74" y="643.564" width="139.4" height="54"/>
    <rect style="fill: none; fill-opacity:0; stroke-width: 2; stroke: #000000" x="518.74" y="643.564" width="139.4" height="54"/>
    <text font-size="12.8" style="fill: #000000;text-anchor:middle;font-family:sans-serif;font-style:normal;font-weight:normal" x="588.44" y="666.464">
      <tspan x="588.44" y="666.464">Pénztári</tspan>
      <tspan x="588.44" y="682.464">adatbázis szerver</tspan>
    </text>
  </g>
  <g>
    <rect style="fill: #fff1a9" x="669.9" y="641.75" width="131" height="54"/>
    <rect style="fill: none; fill-opacity:0; stroke-width: 2; stroke: #000000" x="669.9" y="641.75" width="131" height="54"/>
    <text font-size="12.8" style="fill: #000000;text-anchor:middle;font-family:sans-serif;font-style:normal;font-weight:normal" x="735.4" y="664.65">
      <tspan x="735.4" y="664.65">Custpack</tspan>
      <tspan x="735.4" y="680.65">adatbázisszerver</tspan>
    </text>
  </g>
  <g>
    <rect style="fill: #fff1a9" x="816.474" y="642.75" width="131" height="54"/>
    <rect style="fill: none; fill-opacity:0; stroke-width: 2; stroke: #000000" x="816.474" y="642.75" width="131" height="54"/>
    <text font-size="12.8" style="fill: #000000;text-anchor:middle;font-family:sans-serif;font-style:normal;font-weight:normal" x="881.974" y="665.65">
      <tspan x="881.974" y="665.65">Know-IT-All</tspan>
      <tspan x="881.974" y="681.65">adatbázisszerver</tspan>
    </text>
  </g>
  <g>
    <rect style="fill: #adbaff" x="966.05" y="642.75" width="141.65" height="54"/>
    <rect style="fill: none; fill-opacity:0; stroke-width: 2; stroke: #000000" x="966.05" y="642.75" width="141.65" height="54"/>
    <text font-size="12.8" style="fill: #000000;text-anchor:middle;font-family:sans-serif;font-style:normal;font-weight:normal" x="1036.88" y="665.65">
      <tspan x="1036.88" y="665.65">Staffman</tspan>
      <tspan x="1036.88" y="681.65">Alkalmazásszerver</tspan>
    </text>
  </g>
  <g>
    <rect style="fill: #fff1a9" x="972.374" y="757.75" width="131" height="54"/>
    <rect style="fill: none; fill-opacity:0; stroke-width: 2; stroke: #000000" x="972.374" y="757.75" width="131" height="54"/>
    <text font-size="12.8" style="fill: #000000;text-anchor:middle;font-family:sans-serif;font-style:normal;font-weight:normal" x="1037.87" y="780.65">
      <tspan x="1037.87" y="780.65">Staffman</tspan>
      <tspan x="1037.87" y="796.65">adatbázisszerver</tspan>
    </text>
  </g>
  <g>
    <rect style="fill: #fff1a9" x="1129.67" y="757.75" width="131.7" height="54"/>
    <rect style="fill: none; fill-opacity:0; stroke-width: 2; stroke: #000000" x="1129.67" y="757.75" width="131.7" height="54"/>
    <text font-size="12.8" style="fill: #000000;text-anchor:middle;font-family:sans-serif;font-style:normal;font-weight:normal" x="1195.52" y="780.65">
      <tspan x="1195.52" y="780.65">Perso</tspan>
      <tspan x="1195.52" y="796.65">Adatbázisszerver</tspan>
    </text>
  </g>
  <g>
    <rect style="fill: #adbaff" x="1257.15" y="646.202" width="131.7" height="54"/>
    <rect style="fill: none; fill-opacity:0; stroke-width: 2; stroke: #000000" x="1257.15" y="646.202" width="131.7" height="54"/>
    <text font-size="12.8" style="fill: #000000;text-anchor:middle;font-family:sans-serif;font-style:normal;font-weight:normal" x="1323" y="669.102">
      <tspan x="1323" y="669.102">Netline</tspan>
      <tspan x="1323" y="685.102">Adatbázisszerver</tspan>
    </text>
  </g>
  <g>
    <rect style="fill: #adbaff" x="-248.6" y="404.75" width="141.65" height="54"/>
    <rect style="fill: none; fill-opacity:0; stroke-width: 2; stroke: #000000" x="-248.6" y="404.75" width="141.65" height="54"/>
    <text font-size="12.8" style="fill: #000000;text-anchor:middle;font-family:sans-serif;font-style:normal;font-weight:normal" x="-177.775" y="427.65">
      <tspan x="-177.775" y="427.65">Netcon</tspan>
      <tspan x="-177.775" y="443.65">Alkalmazásszerver</tspan>
    </text>
  </g>
  <g>
    <rect style="fill: #adbaff" x="-86.1034" y="404.75" width="140.75" height="54"/>
    <rect style="fill: none; fill-opacity:0; stroke-width: 2; stroke: #000000" x="-86.1034" y="404.75" width="140.75" height="54"/>
    <text font-size="12.8" style="fill: #000000;text-anchor:middle;font-family:sans-serif;font-style:normal;font-weight:normal" x="-15.7284" y="427.65">
      <tspan x="-15.7284" y="427.65">SAP</tspan>
      <tspan x="-15.7284" y="443.65">alkalmazásszerver</tspan>
    </text>
  </g>
  <g>
    <rect style="fill: #adbaff" x="78.024" y="406.66" width="140.75" height="54"/>
    <rect style="fill: none; fill-opacity:0; stroke-width: 2; stroke: #000000" x="78.024" y="406.66" width="140.75" height="54"/>
    <text font-size="12.8" style="fill: #000000;text-anchor:middle;font-family:sans-serif;font-style:normal;font-weight:normal" x="148.399" y="429.56">
      <tspan x="148.399" y="429.56">Számlázási</tspan>
      <tspan x="148.399" y="445.56">alkalmazásszerver</tspan>
    </text>
  </g>
  <g>
    <rect style="fill: #add4ff" x="252.29" y="408.84" width="93.3" height="54"/>
    <rect style="fill: none; fill-opacity:0; stroke-width: 2; stroke: #000000" x="252.29" y="408.84" width="93.3" height="54"/>
    <text font-size="12.8" style="fill: #000000;text-anchor:middle;font-family:sans-serif;font-style:normal;font-weight:normal" x="298.94" y="431.74">
      <tspan x="298.94" y="431.74">Számlázási</tspan>
      <tspan x="298.94" y="447.74">nyomtató</tspan>
    </text>
  </g>
  <g>
    <rect style="fill: #add4ff" x="384.624" y="409.75" width="91.1" height="54"/>
    <rect style="fill: none; fill-opacity:0; stroke-width: 2; stroke: #000000" x="384.624" y="409.75" width="91.1" height="54"/>
    <text font-size="12.8" style="fill: #000000;text-anchor:middle;font-family:sans-serif;font-style:normal;font-weight:normal" x="430.174" y="432.65">
      <tspan x="430.174" y="432.65">Pénztári</tspan>
      <tspan x="430.174" y="448.65">nyomtatók</tspan>
    </text>
  </g>
  <g>
    <rect style="fill: #adbaff" x="491.032" y="406.66" width="149.4" height="70"/>
    <rect style="fill: none; fill-opacity:0; stroke-width: 2; stroke: #000000" x="491.032" y="406.66" width="149.4" height="70"/>
    <text font-size="12.8" style="fill: #000000;text-anchor:middle;font-family:sans-serif;font-style:normal;font-weight:normal" x="565.732" y="429.56">
      <tspan x="565.732" y="429.56">Pénztári</tspan>
      <tspan x="565.732" y="445.56">alkalmazásszerver /</tspan>
      <tspan x="565.732" y="461.56">Citrix</tspan>
    </text>
  </g>
  <g>
    <rect style="fill: #adbaff" x="662.624" y="414.75" width="140.75" height="54"/>
    <rect style="fill: none; fill-opacity:0; stroke-width: 2; stroke: #000000" x="662.624" y="414.75" width="140.75" height="54"/>
    <text font-size="12.8" style="fill: #000000;text-anchor:middle;font-family:sans-serif;font-style:normal;font-weight:normal" x="732.999" y="437.65">
      <tspan x="732.999" y="437.65">Custpack</tspan>
      <tspan x="732.999" y="453.65">alkalmazásszerver</tspan>
    </text>
  </g>
  <g>
    <rect style="fill: #adbaff" x="816.368" y="415.75" width="140.75" height="54"/>
    <rect style="fill: none; fill-opacity:0; stroke-width: 2; stroke: #000000" x="816.368" y="415.75" width="140.75" height="54"/>
    <text font-size="12.8" style="fill: #000000;text-anchor:middle;font-family:sans-serif;font-style:normal;font-weight:normal" x="886.743" y="438.65">
      <tspan x="886.743" y="438.65">Know-IT-All</tspan>
      <tspan x="886.743" y="454.65">alkalmazásszerver</tspan>
    </text>
  </g>
  <g>
    <rect style="fill: #78a7ff" x="1055.29" y="527.206" width="74.35" height="38"/>
    <rect style="fill: none; fill-opacity:0; stroke-width: 2; stroke: #000000" x="1055.29" y="527.206" width="74.35" height="38"/>
    <text font-size="12.8" style="fill: #000000;text-anchor:middle;font-family:sans-serif;font-style:normal;font-weight:normal" x="1092.46" y="550.106">
      <tspan x="1092.46" y="550.106">VMWare</tspan>
    </text>
  </g>
  <g>
    <rect style="fill: #e0b8ff" x="1091.21" y="411.026" width="89.1" height="54"/>
    <rect style="fill: none; fill-opacity:0; stroke-width: 2; stroke: #000000" x="1091.21" y="411.026" width="89.1" height="54"/>
    <text font-size="12.8" style="fill: #000000;text-anchor:middle;font-family:sans-serif;font-style:normal;font-weight:normal" x="1135.76" y="433.926">
      <tspan x="1135.76" y="433.926">MS Access</tspan>
      <tspan x="1135.76" y="449.926">kliens</tspan>
    </text>
  </g>
  <g>
    <rect style="fill: #e6b5fe" x="1271.94" y="411.044" width="95.75" height="54"/>
    <rect style="fill: none; fill-opacity:0; stroke-width: 2; stroke: #000000" x="1271.94" y="411.044" width="95.75" height="54"/>
    <text font-size="12.8" style="fill: #000000;text-anchor:middle;font-family:sans-serif;font-style:normal;font-weight:normal" x="1319.82" y="433.944">
      <tspan x="1319.82" y="433.944">Netline</tspan>
      <tspan x="1319.82" y="449.944">webszerver</tspan>
    </text>
  </g>
  <g>
    <rect style="fill: #aefbe6" x="-211.764" y="235.564" width="67.5" height="38"/>
    <rect style="fill: none; fill-opacity:0; stroke-width: 2; stroke: #000000" x="-211.764" y="235.564" width="67.5" height="38"/>
    <text font-size="12.8" style="fill: #000000;text-anchor:middle;font-family:sans-serif;font-style:normal;font-weight:normal" x="-178.014" y="258.464">
      <tspan x="-178.014" y="258.464">Netcon</tspan>
    </text>
  </g>
  <g>
    <rect style="fill: #aefbe6" x="-37.8952" y="237.294" width="46.85" height="38"/>
    <rect style="fill: none; fill-opacity:0; stroke-width: 2; stroke: #000000" x="-37.8952" y="237.294" width="46.85" height="38"/>
    <text font-size="12.8" style="fill: #000000;text-anchor:middle;font-family:sans-serif;font-style:normal;font-weight:normal" x="-14.4702" y="260.194">
      <tspan x="-14.4702" y="260.194">SAP</tspan>
    </text>
  </g>
  <g>
    <rect style="fill: #aefbe6" x="104.465" y="236.932" width="89.75" height="38"/>
    <rect style="fill: none; fill-opacity:0; stroke-width: 2; stroke: #000000" x="104.465" y="236.932" width="89.75" height="38"/>
    <text font-size="12.8" style="fill: #000000;text-anchor:middle;font-family:sans-serif;font-style:normal;font-weight:normal" x="149.34" y="259.832">
      <tspan x="149.34" y="259.832">Számlázás</tspan>
    </text>
  </g>
  <g>
    <rect style="fill: #aefbe6" x="526.374" y="225.75" width="77.6" height="54"/>
    <rect style="fill: none; fill-opacity:0; stroke-width: 2; stroke: #000000" x="526.374" y="225.75" width="77.6" height="54"/>
    <text font-size="12.8" style="fill: #000000;text-anchor:middle;font-family:sans-serif;font-style:normal;font-weight:normal" x="565.174" y="248.65">
      <tspan x="565.174" y="248.65">Pénztári</tspan>
      <tspan x="565.174" y="264.65">rendszer</tspan>
    </text>
  </g>
  <g>
    <rect style="fill: #aefbe6" x="694.054" y="235.478" width="81.15" height="38"/>
    <rect style="fill: none; fill-opacity:0; stroke-width: 2; stroke: #000000" x="694.054" y="235.478" width="81.15" height="38"/>
    <text font-size="12.8" style="fill: #000000;text-anchor:middle;font-family:sans-serif;font-style:normal;font-weight:normal" x="734.629" y="258.378">
      <tspan x="734.629" y="258.378">Custpack</tspan>
    </text>
  </g>
  <g>
    <rect style="fill: #aefbe6" x="840.816" y="230.482" width="90.35" height="38"/>
    <rect style="fill: none; fill-opacity:0; stroke-width: 2; stroke: #000000" x="840.816" y="230.482" width="90.35" height="38"/>
    <text font-size="12.8" style="fill: #000000;text-anchor:middle;font-family:sans-serif;font-style:normal;font-weight:normal" x="885.991" y="253.382">
      <tspan x="885.991" y="253.382">Know-It-All</tspan>
    </text>
  </g>
  <g>
    <rect style="fill: #aefbe6" x="975.624" y="232.026" width="80.2" height="38"/>
    <rect style="fill: none; fill-opacity:0; stroke-width: 2; stroke: #000000" x="975.624" y="232.026" width="80.2" height="38"/>
    <text font-size="12.8" style="fill: #000000;text-anchor:middle;font-family:sans-serif;font-style:normal;font-weight:normal" x="1015.72" y="254.926">
      <tspan x="1015.72" y="254.926">Staffman</tspan>
    </text>
  </g>
  <g>
    <rect style="fill: #aefbe6" x="1126.53" y="232.936" width="56.9" height="38"/>
    <rect style="fill: none; fill-opacity:0; stroke-width: 2; stroke: #000000" x="1126.53" y="232.936" width="56.9" height="38"/>
    <text font-size="12.8" style="fill: #000000;text-anchor:middle;font-family:sans-serif;font-style:normal;font-weight:normal" x="1154.98" y="255.836">
      <tspan x="1154.98" y="255.836">Perso</tspan>
    </text>
  </g>
  <g>
    <rect style="fill: #aefbe6" x="1251.82" y="236.116" width="134.5" height="38"/>
    <rect style="fill: none; fill-opacity:0; stroke-width: 2; stroke: #000000" x="1251.82" y="236.116" width="134.5" height="38"/>
    <text font-size="12.8" style="fill: #000000;text-anchor:middle;font-family:sans-serif;font-style:normal;font-weight:normal" x="1319.07" y="259.016">
      <tspan x="1319.07" y="259.016">MobilTech Netline</tspan>
    </text>
  </g>
  <g>
    <line style="fill: none; fill-opacity:0; stroke-width: 2; stroke: #000000" x1="1049.44" y1="943.954" x2="859.324" y2="1028.23"/>
    <polygon style="fill: #000000" points="852.468,1031.27 859.583,1022.65 859.324,1028.23 863.636,1031.79 "/>
    <polygon style="fill: none; fill-opacity:0; stroke-width: 2; stroke: #000000" points="852.468,1031.27 859.583,1022.65 859.324,1028.23 863.636,1031.79 "/>
  </g>
  <g>
    <line style="fill: none; fill-opacity:0; stroke-width: 2; stroke: #000000" x1="784.704" y1="939.389" x2="786.569" y2="1022.37"/>
    <polygon style="fill: #000000" points="786.737,1029.87 781.514,1019.99 786.569,1022.37 791.512,1019.76 "/>
    <polygon style="fill: none; fill-opacity:0; stroke-width: 2; stroke: #000000" points="786.737,1029.87 781.514,1019.99 786.569,1022.37 791.512,1019.76 "/>
  </g>
  <g>
    <line style="fill: none; fill-opacity:0; stroke-width: 2; stroke: #000000" x1="466.05" y1="932.956" x2="712.048" y2="1030.29"/>
    <polygon style="fill: #000000" points="719.022,1033.05 707.884,1034.02 712.048,1030.29 711.563,1024.72 "/>
    <polygon style="fill: none; fill-opacity:0; stroke-width: 2; stroke: #000000" points="719.022,1033.05 707.884,1034.02 712.048,1030.29 711.563,1024.72 "/>
  </g>
  <g>
    <line style="fill: none; fill-opacity:0; stroke-width: 2; stroke: #000000" x1="34.6171" y1="914.088" x2="711.53" y2="1045.39"/>
    <polygon style="fill: #000000" points="718.893,1046.82 708.124,1049.82 711.53,1045.39 710.028,1040.01 "/>
    <polygon style="fill: none; fill-opacity:0; stroke-width: 2; stroke: #000000" points="718.893,1046.82 708.124,1049.82 711.53,1045.39 710.028,1040.01 "/>
  </g>
  <g>
    <line style="fill: none; fill-opacity:0; stroke-width: 2; stroke: #000000" x1="-119.923" y1="912.313" x2="711.506" y2="1047.75"/>
    <polygon style="fill: #000000" points="718.908,1048.95 708.234,1052.28 711.506,1047.75 709.842,1042.41 "/>
    <polygon style="fill: none; fill-opacity:0; stroke-width: 2; stroke: #000000" points="718.908,1048.95 708.234,1052.28 711.506,1047.75 709.842,1042.41 "/>
  </g>
  <g>
    <line style="fill: none; fill-opacity:0; stroke-width: 2; stroke: #000000" x1="434.594" y1="937.286" x2="534.196" y2="1035.64"/>
    <polygon style="fill: #000000" points="539.532,1040.91 528.904,1037.45 534.196,1035.64 535.93,1030.33 "/>
    <polygon style="fill: none; fill-opacity:0; stroke-width: 2; stroke: #000000" points="539.532,1040.91 528.904,1037.45 534.196,1035.64 535.93,1030.33 "/>
  </g>
  <g>
    <line style="fill: none; fill-opacity:0; stroke-width: 2; stroke: #000000" x1="742.793" y1="939.391" x2="598.905" y2="1037.01"/>
    <polygon style="fill: #000000" points="592.699,1041.22 598.167,1031.46 598.905,1037.01 603.781,1039.74 "/>
    <polygon style="fill: none; fill-opacity:0; stroke-width: 2; stroke: #000000" points="592.699,1041.22 598.167,1031.46 598.905,1037.01 603.781,1039.74 "/>
  </g>
  <g>
    <line style="fill: none; fill-opacity:0; stroke-width: 2; stroke: #000000" x1="1053.77" y1="812.729" x2="1091.74" y2="879.578"/>
    <polygon style="fill: #000000" points="1095.45,886.099 1086.16,879.874 1091.74,879.578 1094.86,874.934 "/>
    <polygon style="fill: none; fill-opacity:0; stroke-width: 2; stroke: #000000" points="1095.45,886.099 1086.16,879.874 1091.74,879.578 1094.86,874.934 "/>
  </g>
  <g>
    <line style="fill: none; fill-opacity:0; stroke-width: 2; stroke: #000000" x1="1177.82" y1="812.729" x2="1135.36" y2="879.816"/>
    <polygon style="fill: #000000" points="1131.35,886.154 1132.47,875.03 1135.36,879.816 1140.92,880.378 "/>
    <polygon style="fill: none; fill-opacity:0; stroke-width: 2; stroke: #000000" points="1131.35,886.154 1132.47,875.03 1135.36,879.816 1140.92,880.378 "/>
  </g>
  <g>
    <line style="fill: none; fill-opacity:0; stroke-width: 2; stroke: #000000" x1="-178.804" y1="699.753" x2="-180.103" y2="872.734"/>
    <polygon style="fill: #000000" points="-180.159,880.234 -185.084,870.197 -180.103,872.734 -175.084,870.272 "/>
    <polygon style="fill: none; fill-opacity:0; stroke-width: 2; stroke: #000000" points="-180.159,880.234 -185.084,870.197 -180.103,872.734 -175.084,870.272 "/>
  </g>
  <g>
    <line style="fill: none; fill-opacity:0; stroke-width: 2; stroke: #000000" x1="-16.0845" y1="704.024" x2="-15.5124" y2="874.661"/>
    <polygon style="fill: #000000" points="-15.4873,882.161 -20.5208,872.178 -15.5124,874.661 -10.5209,872.144 "/>
    <polygon style="fill: none; fill-opacity:0; stroke-width: 2; stroke: #000000" points="-15.4873,882.161 -20.5208,872.178 -15.5124,874.661 -10.5209,872.144 "/>
  </g>
  <g>
    <line style="fill: none; fill-opacity:0; stroke-width: 2; stroke: #000000" x1="179.442" y1="698.733" x2="368.97" y2="874.686"/>
    <polygon style="fill: #000000" points="374.467,879.789 363.736,876.65 368.97,874.686 370.54,869.321 "/>
    <polygon style="fill: none; fill-opacity:0; stroke-width: 2; stroke: #000000" points="374.467,879.789 363.736,876.65 368.97,874.686 370.54,869.321 "/>
  </g>
  <g>
    <line style="fill: none; fill-opacity:0; stroke-width: 2; stroke: #000000" x1="310.103" y1="698.733" x2="389.426" y2="872.454"/>
    <polygon style="fill: #000000" points="392.542,879.276 383.84,872.257 389.426,872.454 392.936,868.103 "/>
    <polygon style="fill: none; fill-opacity:0; stroke-width: 2; stroke: #000000" points="392.542,879.276 383.84,872.257 389.426,872.454 392.936,868.103 "/>
  </g>
  <g>
    <line style="fill: none; fill-opacity:0; stroke-width: 2; stroke: #000000" x1="433.242" y1="697.734" x2="411.051" y2="871.652"/>
    <polygon style="fill: #000000" points="410.102,879.092 406.408,868.54 411.051,871.652 416.327,869.805 "/>
    <polygon style="fill: none; fill-opacity:0; stroke-width: 2; stroke: #000000" points="410.102,879.092 406.408,868.54 411.051,871.652 416.327,869.805 "/>
  </g>
  <g>
    <line style="fill: none; fill-opacity:0; stroke-width: 2; stroke: #000000" x1="567.078" y1="698.555" x2="433.516" y2="873.564"/>
    <polygon style="fill: #000000" points="428.966,879.526 431.058,868.543 433.516,873.564 439.008,874.61 "/>
    <polygon style="fill: none; fill-opacity:0; stroke-width: 2; stroke: #000000" points="428.966,879.526 431.058,868.543 433.516,873.564 439.008,874.61 "/>
  </g>
  <g>
    <line style="fill: none; fill-opacity:0; stroke-width: 2; stroke: #000000" x1="741.015" y1="696.739" x2="776.545" y2="873.849"/>
    <polygon style="fill: #000000" points="778.02,881.202 771.151,872.381 776.545,873.849 780.956,870.414 "/>
    <polygon style="fill: none; fill-opacity:0; stroke-width: 2; stroke: #000000" points="778.02,881.202 771.151,872.381 776.545,873.849 780.956,870.414 "/>
  </g>
  <g>
    <line style="fill: none; fill-opacity:0; stroke-width: 2; stroke: #000000" x1="870.63" y1="697.749" x2="799.075" y2="874.361"/>
    <polygon style="fill: #000000" points="796.259,881.312 795.38,870.166 799.075,874.361 804.648,873.921 "/>
    <polygon style="fill: none; fill-opacity:0; stroke-width: 2; stroke: #000000" points="796.259,881.312 795.38,870.166 799.075,874.361 804.648,873.921 "/>
  </g>
  <g>
    <line style="fill: none; fill-opacity:0; stroke-width: 2; stroke: #000000" x1="1037.12" y1="697.749" x2="1037.55" y2="747.015"/>
    <polygon style="fill: #000000" points="1037.61,754.515 1032.52,744.559 1037.55,747.015 1042.52,744.472 "/>
    <polygon style="fill: none; fill-opacity:0; stroke-width: 2; stroke: #000000" points="1037.61,754.515 1032.52,744.559 1037.55,747.015 1042.52,744.472 "/>
  </g>
  <g>
    <polyline style="fill: none; fill-opacity:0; stroke-width: 2; stroke: #000000" points="1323,701.202 1323,839.114 784.075,839.114 784.075,873.664 "/>
    <polygon style="fill: #000000" points="784.075,881.164 779.075,871.165 784.075,873.664 789.075,871.164 "/>
    <polygon style="fill: none; fill-opacity:0; stroke-width: 2; stroke: #000000" points="784.075,881.164 779.075,871.165 784.075,873.664 789.075,871.164 "/>
  </g>
  <g>
    <line style="fill: none; fill-opacity:0; stroke-width: 2; stroke: #000000" x1="1083.46" y1="566.211" x2="1053.47" y2="632.873"/>
    <polygon style="fill: #000000" points="1050.39,639.713 1049.93,628.542 1053.47,632.873 1059.05,632.645 "/>
    <polygon style="fill: none; fill-opacity:0; stroke-width: 2; stroke: #000000" points="1050.39,639.713 1049.93,628.542 1053.47,632.873 1059.05,632.645 "/>
  </g>
  <g>
    <line style="fill: none; fill-opacity:0; stroke-width: 2; stroke: #000000" x1="1101.1" y1="566.196" x2="1179.57" y2="747.829"/>
    <polygon style="fill: #000000" points="1182.55,754.714 1173.99,747.517 1179.57,747.829 1183.17,743.551 "/>
    <polygon style="fill: none; fill-opacity:0; stroke-width: 2; stroke: #000000" points="1182.55,754.714 1173.99,747.517 1179.57,747.829 1183.17,743.551 "/>
  </g>
  <g>
    <line style="fill: none; fill-opacity:0; stroke-width: 2; stroke: #000000" x1="1319.15" y1="273.695" x2="1319.66" y2="400.328"/>
    <polygon style="fill: #000000" points="1319.7,407.828 1314.65,397.849 1319.66,400.328 1324.65,397.808 "/>
    <polygon style="fill: none; fill-opacity:0; stroke-width: 2; stroke: #000000" points="1319.7,407.828 1314.65,397.849 1319.66,400.328 1324.65,397.808 "/>
  </g>
  <g>
    <line style="fill: none; fill-opacity:0; stroke-width: 2; stroke: #000000" x1="-177.87" y1="459.699" x2="-178.465" y2="634.065"/>
    <polygon style="fill: #000000" points="-178.491,641.565 -183.457,631.548 -178.465,634.065 -173.457,631.582 "/>
    <polygon style="fill: none; fill-opacity:0; stroke-width: 2; stroke: #000000" points="-178.491,641.565 -183.457,631.548 -178.465,634.065 -173.457,631.582 "/>
  </g>
  <g>
    <line style="fill: none; fill-opacity:0; stroke-width: 2; stroke: #000000" x1="-15.78" y1="459.757" x2="-16.1089" y2="638.279"/>
    <polygon style="fill: #000000" points="-16.1227,645.779 -21.1043,635.77 -16.1089,638.279 -11.1043,635.788 "/>
    <polygon style="fill: none; fill-opacity:0; stroke-width: 2; stroke: #000000" points="-16.1227,645.779 -21.1043,635.77 -16.1089,638.279 -11.1043,635.788 "/>
  </g>
  <g>
    <line style="fill: none; fill-opacity:0; stroke-width: 2; stroke: #000000" x1="148.505" y1="461.56" x2="149.157" y2="633.114"/>
    <polygon style="fill: #000000" points="149.185,640.614 144.148,630.633 149.157,633.114 154.147,630.595 "/>
    <polygon style="fill: none; fill-opacity:0; stroke-width: 2; stroke: #000000" points="149.185,640.614 144.148,630.633 149.157,633.114 154.147,630.595 "/>
  </g>
  <g>
    <line style="fill: none; fill-opacity:0; stroke-width: 2; stroke: #000000" x1="298.747" y1="463.842" x2="297.584" y2="633.013"/>
    <polygon style="fill: #000000" points="297.533,640.512 292.602,630.478 297.584,633.013 302.602,630.547 "/>
    <polygon style="fill: none; fill-opacity:0; stroke-width: 2; stroke: #000000" points="297.533,640.512 292.602,630.478 297.584,633.013 302.602,630.547 "/>
  </g>
  <g>
    <line style="fill: none; fill-opacity:0; stroke-width: 2; stroke: #000000" x1="217.761" y1="461.439" x2="659.857" y2="638.495"/>
    <polygon style="fill: #000000" points="666.819,641.284 655.677,642.208 659.857,638.495 659.395,632.924 "/>
    <polygon style="fill: none; fill-opacity:0; stroke-width: 2; stroke: #000000" points="666.819,641.284 655.677,642.208 659.857,638.495 659.395,632.924 "/>
  </g>
  <g>
    <line style="fill: none; fill-opacity:0; stroke-width: 2; stroke: #000000" x1="430.972" y1="464.752" x2="435.738" y2="632.016"/>
    <polygon style="fill: #000000" points="435.951,639.513 430.669,629.66 435.738,632.016 440.665,629.375 "/>
    <polygon style="fill: none; fill-opacity:0; stroke-width: 2; stroke: #000000" points="435.951,639.513 430.669,629.66 435.738,632.016 440.665,629.375 "/>
  </g>
  <g>
    <line style="fill: none; fill-opacity:0; stroke-width: 2; stroke: #000000" x1="545.392" y1="477.647" x2="457.42" y2="633.292"/>
    <polygon style="fill: #000000" points="453.729,639.821 454.297,628.655 457.42,633.292 463.002,633.576 "/>
    <polygon style="fill: none; fill-opacity:0; stroke-width: 2; stroke: #000000" points="453.729,639.821 454.297,628.655 457.42,633.292 463.002,633.576 "/>
  </g>
  <g>
    <line style="fill: none; fill-opacity:0; stroke-width: 2; stroke: #000000" x1="569.304" y1="477.664" x2="584.701" y2="632.87"/>
    <polygon style="fill: #000000" points="585.441,640.334 579.478,630.876 584.701,632.87 589.429,629.889 "/>
    <polygon style="fill: none; fill-opacity:0; stroke-width: 2; stroke: #000000" points="585.441,640.334 579.478,630.876 584.701,632.87 589.429,629.889 "/>
  </g>
  <g>
    <line style="fill: none; fill-opacity:0; stroke-width: 2; stroke: #000000" x1="592.626" y1="477.656" x2="708.649" y2="632.945"/>
    <polygon style="fill: #000000" points="713.138,638.954 703.147,633.935 708.649,632.945 711.158,627.95 "/>
    <polygon style="fill: none; fill-opacity:0; stroke-width: 2; stroke: #000000" points="713.138,638.954 703.147,633.935 708.649,632.945 711.158,627.95 "/>
  </g>
  <g>
    <line style="fill: none; fill-opacity:0; stroke-width: 2; stroke: #000000" x1="733.295" y1="469.751" x2="735.001" y2="631.014"/>
    <polygon style="fill: #000000" points="735.08,638.513 729.975,628.567 735.001,631.014 739.974,628.461 "/>
    <polygon style="fill: none; fill-opacity:0; stroke-width: 2; stroke: #000000" points="735.08,638.513 729.975,628.567 735.001,631.014 739.974,628.461 "/>
  </g>
  <g>
    <line style="fill: none; fill-opacity:0; stroke-width: 2; stroke: #000000" x1="886.155" y1="470.751" x2="882.767" y2="632.015"/>
    <polygon style="fill: #000000" points="882.609,639.514 877.82,629.411 882.767,632.015 887.818,629.621 "/>
    <polygon style="fill: none; fill-opacity:0; stroke-width: 2; stroke: #000000" points="882.609,639.514 877.82,629.411 882.767,632.015 887.818,629.621 "/>
  </g>
  <g>
    <line style="fill: none; fill-opacity:0; stroke-width: 2; stroke: #000000" x1="-177.987" y1="274.56" x2="-177.826" y2="394.015"/>
    <polygon style="fill: #000000" points="-177.816,401.515 -182.829,391.522 -177.826,394.015 -172.829,391.508 "/>
    <polygon style="fill: none; fill-opacity:0; stroke-width: 2; stroke: #000000" points="-177.816,401.515 -182.829,391.522 -177.826,394.015 -172.829,391.508 "/>
  </g>
  <g>
    <line style="fill: none; fill-opacity:0; stroke-width: 2; stroke: #000000" x1="-14.6135" y1="276.277" x2="-15.458" y2="394.042"/>
    <polygon style="fill: #000000" points="-15.5118,401.542 -20.4399,391.507 -15.458,394.042 -10.4402,391.578 "/>
    <polygon style="fill: none; fill-opacity:0; stroke-width: 2; stroke: #000000" points="-15.5118,401.542 -20.4399,391.507 -15.458,394.042 -10.4402,391.578 "/>
  </g>
  <g>
    <line style="fill: none; fill-opacity:0; stroke-width: 2; stroke: #000000" x1="149.234" y1="275.913" x2="148.599" y2="395.926"/>
    <polygon style="fill: #000000" points="148.559,403.426 143.612,393.4 148.599,395.926 153.612,393.453 "/>
    <polygon style="fill: none; fill-opacity:0; stroke-width: 2; stroke: #000000" points="148.559,403.426 143.612,393.4 148.599,395.926 153.612,393.453 "/>
  </g>
  <g>
    <line style="fill: none; fill-opacity:0; stroke-width: 2; stroke: #000000" x1="165.967" y1="275.928" x2="269.441" y2="400.364"/>
    <polygon style="fill: #000000" points="274.236,406.131 263.998,401.639 269.441,400.364 271.687,395.245 "/>
    <polygon style="fill: none; fill-opacity:0; stroke-width: 2; stroke: #000000" points="274.236,406.131 263.998,401.639 269.441,400.364 271.687,395.245 "/>
  </g>
  <g>
    <line style="fill: none; fill-opacity:0; stroke-width: 2; stroke: #000000" x1="544.632" y1="280.748" x2="456.475" y2="400.903"/>
    <polygon style="fill: #000000" points="452.038,406.95 453.923,395.929 456.475,400.903 461.985,401.845 "/>
    <polygon style="fill: none; fill-opacity:0; stroke-width: 2; stroke: #000000" points="452.038,406.95 453.923,395.929 456.475,400.903 461.985,401.845 "/>
  </g>
  <g>
    <line style="fill: none; fill-opacity:0; stroke-width: 2; stroke: #000000" x1="565.257" y1="280.757" x2="565.597" y2="395.921"/>
    <polygon style="fill: #000000" points="565.619,403.421 560.59,393.436 565.597,395.921 570.589,393.406 "/>
    <polygon style="fill: none; fill-opacity:0; stroke-width: 2; stroke: #000000" points="565.619,403.421 560.59,393.436 565.597,395.921 570.589,393.406 "/>
  </g>
  <g>
    <line style="fill: none; fill-opacity:0; stroke-width: 2; stroke: #000000" x1="734.455" y1="274.469" x2="733.327" y2="404.022"/>
    <polygon style="fill: #000000" points="733.262,411.522 728.349,401.478 733.327,404.022 738.349,401.565 "/>
    <polygon style="fill: none; fill-opacity:0; stroke-width: 2; stroke: #000000" points="733.262,411.522 728.349,401.478 733.327,404.022 738.349,401.565 "/>
  </g>
  <g>
    <line style="fill: none; fill-opacity:0; stroke-width: 2; stroke: #000000" x1="886.068" y1="269.3" x2="886.596" y2="405.022"/>
    <polygon style="fill: #000000" points="886.625,412.522 881.587,402.541 886.596,405.022 891.586,402.502 "/>
    <polygon style="fill: none; fill-opacity:0; stroke-width: 2; stroke: #000000" points="886.625,412.522 881.587,402.541 886.596,405.022 891.586,402.502 "/>
  </g>
  <g>
    <line style="fill: none; fill-opacity:0; stroke-width: 2; stroke: #000000" x1="1016.73" y1="271.024" x2="1034.97" y2="632.118"/>
    <polygon style="fill: #000000" points="1035.35,639.609 1029.85,629.874 1034.97,632.118 1039.84,629.369 "/>
    <polygon style="fill: none; fill-opacity:0; stroke-width: 2; stroke: #000000" points="1035.35,639.609 1029.85,629.874 1034.97,632.118 1039.84,629.369 "/>
  </g>
  <g>
    <line style="fill: none; fill-opacity:0; stroke-width: 2; stroke: #000000" x1="1020.93" y1="271.033" x2="1084.81" y2="516.776"/>
    <polygon style="fill: #000000" points="1086.7,524.035 1079.34,515.614 1084.81,516.776 1089.02,513.098 "/>
    <polygon style="fill: none; fill-opacity:0; stroke-width: 2; stroke: #000000" points="1086.7,524.035 1079.34,515.614 1084.81,516.776 1089.02,513.098 "/>
  </g>
  <g>
    <line style="fill: none; fill-opacity:0; stroke-width: 2; stroke: #000000" x1="1152.92" y1="271.937" x2="1139.65" y2="400.344"/>
    <polygon style="fill: #000000" points="1138.88,407.804 1134.93,397.343 1139.65,400.344 1144.88,398.371 "/>
    <polygon style="fill: none; fill-opacity:0; stroke-width: 2; stroke: #000000" points="1138.88,407.804 1134.93,397.343 1139.65,400.344 1144.88,398.371 "/>
  </g>
  <g>
    <line style="fill: none; fill-opacity:0; stroke-width: 2; stroke: #000000" x1="1150.73" y1="271.926" x2="1098.73" y2="516.692"/>
    <polygon style="fill: #000000" points="1097.17,524.028 1094.36,513.208 1098.73,516.692 1104.14,515.286 "/>
    <polygon style="fill: none; fill-opacity:0; stroke-width: 2; stroke: #000000" points="1097.17,524.028 1094.36,513.208 1098.73,516.692 1104.14,515.286 "/>
  </g>
  <g>
    <line style="fill: none; fill-opacity:0; stroke-width: 2; stroke: #000000" x1="1156.5" y1="271.92" x2="1192.66" y2="747.058"/>
    <polygon style="fill: #000000" points="1193.23,754.537 1187.48,744.945 1192.66,747.058 1197.45,744.186 "/>
    <polygon style="fill: none; fill-opacity:0; stroke-width: 2; stroke: #000000" points="1193.23,754.537 1187.48,744.945 1192.66,747.058 1197.45,744.186 "/>
  </g>
  <g>
    <rect style="fill: #adbaff" x="1250.85" y="531.61" width="141.65" height="54"/>
    <rect style="fill: none; fill-opacity:0; stroke-width: 2; stroke: #000000" x="1250.85" y="531.61" width="141.65" height="54"/>
    <text font-size="12.8" style="fill: #000000;text-anchor:middle;font-family:sans-serif;font-style:normal;font-weight:normal" x="1321.68" y="554.51">
      <tspan x="1321.68" y="554.51">Netline</tspan>
      <tspan x="1321.68" y="570.51">Alkalmazásszerver</tspan>
    </text>
  </g>
  <g>
    <line style="fill: none; fill-opacity:0; stroke-width: 2; stroke: #000000" x1="1320.25" y1="466.044" x2="1321.1" y2="520.875"/>
    <polygon style="fill: #000000" points="1321.21,528.374 1316.06,518.452 1321.1,520.875 1326.06,518.298 "/>
    <polygon style="fill: none; fill-opacity:0; stroke-width: 2; stroke: #000000" points="1321.21,528.374 1316.06,518.452 1321.1,520.875 1326.06,518.298 "/>
  </g>
  <g>
    <line style="fill: none; fill-opacity:0; stroke-width: 2; stroke: #000000" x1="1322" y1="586.601" x2="1322.56" y2="635.476"/>
    <polygon style="fill: #000000" points="1322.65,642.976 1317.53,633.034 1322.56,635.476 1327.53,632.919 "/>
    <polygon style="fill: none; fill-opacity:0; stroke-width: 2; stroke: #000000" points="1322.65,642.976 1317.53,633.034 1322.56,635.476 1327.53,632.919 "/>
  </g>
</svg>
